<?xml version="1.0" encoding="UTF-8" standalone="no"?>
<svg
   xmlns:dc="http://purl.org/dc/elements/1.1/"
   xmlns:cc="http://creativecommons.org/ns#"
   xmlns:rdf="http://www.w3.org/1999/02/22-rdf-syntax-ns#"
   xmlns:svg="http://www.w3.org/2000/svg"
   xmlns="http://www.w3.org/2000/svg"
   xmlns:sodipodi="http://sodipodi.sourceforge.net/DTD/sodipodi-0.dtd"
   xmlns:inkscape="http://www.inkscape.org/namespaces/inkscape"
   id="svg8"
   version="1.1"
   viewBox="0 0 50 50"
   height="50"
   width="50"
   sodipodi:docname="color.svg"
   inkscape:version="0.92.5 (2060ec1f9f, 2020-04-08)">
  <sodipodi:namedview
     pagecolor="#ffffff"
     bordercolor="#666666"
     borderopacity="1"
     objecttolerance="10"
     gridtolerance="10"
     guidetolerance="10"
     inkscape:pageopacity="0"
     inkscape:pageshadow="2"
     inkscape:window-width="1918"
     inkscape:window-height="1021"
     id="namedview12"
     showgrid="false"
     inkscape:zoom="4.72"
     inkscape:cx="3.1779661"
     inkscape:cy="25"
     inkscape:window-x="0"
     inkscape:window-y="34"
     inkscape:window-maximized="1"
     inkscape:current-layer="layer1" />
  <defs
     id="defs2" />
  <metadata
     id="metadata5">
    <rdf:RDF>
      <cc:Work
         rdf:about="">
        <dc:format>image/svg+xml</dc:format>
        <dc:type
           rdf:resource="http://purl.org/dc/dcmitype/StillImage" />
        <dc:title />
      </cc:Work>
    </rdf:RDF>
  </metadata>
  <g
     transform="translate(0,-283.77081)"
     id="layer1">
    <path
       style="color:#000000;font-style:normal;font-variant:normal;font-weight:normal;font-stretch:normal;font-size:medium;line-height:normal;font-family:sans-serif;font-variant-ligatures:normal;font-variant-position:normal;font-variant-caps:normal;font-variant-numeric:normal;font-variant-alternates:normal;font-feature-settings:normal;text-indent:0;text-align:start;text-decoration:none;text-decoration-line:none;text-decoration-style:solid;text-decoration-color:#000000;letter-spacing:normal;word-spacing:normal;text-transform:none;writing-mode:lr-tb;direction:ltr;text-orientation:mixed;dominant-baseline:auto;baseline-shift:baseline;text-anchor:start;white-space:normal;shape-padding:0;clip-rule:nonzero;display:inline;overflow:visible;visibility:visible;opacity:1;isolation:auto;mix-blend-mode:normal;color-interpolation:sRGB;color-interpolation-filters:linearRGB;solid-color:#000000;solid-opacity:1;vector-effect:none;fill:#ffffff;fill-opacity:1;fill-rule:nonzero;stroke:#000000;stroke-width:2;stroke-linecap:round;stroke-linejoin:round;stroke-miterlimit:4;stroke-dasharray:none;stroke-dashoffset:0;stroke-opacity:1;color-rendering:auto;image-rendering:auto;shape-rendering:auto;text-rendering:auto;enable-background:accumulate"
       d="m 20.705819,290.23777 c -4.856209,0 -8.96139,1.40546 -11.840926,4.13117 -2.8795371,2.72571 -4.4584863,6.72612 -4.4584852,11.60822 -1.1e-6,5.2321 3.8107942,11.58655 8.5696122,16.22774 2.379409,2.3206 5.014923,4.19549 7.672639,5.17387 2.657715,0.97839 5.455727,1.0274 7.7276,-0.52575 2.811161,-1.92182 4.400388,-3.72307 5.249932,-5.45324 0.849544,-1.73016 0.910105,-3.34376 0.850806,-4.64592 -0.02342,-0.51438 -0.137238,-0.93734 -0.266014,-1.69603 -0.128776,-0.75869 -0.275035,-1.68754 -0.35835,-2.57594 -0.08332,-0.8884 -0.09212,-1.74764 -0.0044,-2.26577 0.03142,-0.1856 0.06563,-0.2471 0.09453,-0.31676 1.846613,-0.20381 2.875567,0.47236 3.816533,1.39905 0.488128,0.48072 0.916277,1.01871 1.382834,1.50465 0.466557,0.48592 1.02539,1.05915 1.969824,1.07129 1.147839,0.0147 2.256253,-0.2839 3.163589,-0.72813 0.453669,-0.2221 0.85745,-0.47974 1.200361,-0.81171 0.342912,-0.33198 0.694716,-0.77571 0.694716,-1.45185 0,-5.25288 -4.054375,-10.30224 -9.136817,-14.14016 -5.082444,-3.83792 -11.273575,-6.50473 -16.327993,-6.50473 z m 4.645354,25.77916 a 3.2194453,3.2213656 0 0 1 3.218551,3.22267 3.2194453,3.2213656 0 0 1 -3.218551,3.22047 3.2194453,3.2213656 0 0 1 -3.220749,-3.22047 3.2194453,3.2213656 0 0 1 3.220749,-3.22267 z"
       id="path826"
       inkscape:connector-curvature="0" />
    <ellipse
       ry="2.5243154"
       rx="2.5938754"
       cy="309.03519"
       cx="13.669868"
       id="path820"
       style="opacity:1;fill:#000000;fill-opacity:1;stroke:none;stroke-width:3;stroke-linecap:round;stroke-linejoin:round;stroke-miterlimit:4;stroke-dasharray:none;stroke-dashoffset:0;stroke-opacity:1" />
    <ellipse
       style="opacity:1;fill:#000000;fill-opacity:1;stroke:none;stroke-width:3;stroke-linecap:round;stroke-linejoin:round;stroke-miterlimit:4;stroke-dasharray:none;stroke-dashoffset:0;stroke-opacity:1"
       id="ellipse822"
       cx="13.883064"
       cy="301.85333"
       rx="2.5938754"
       ry="2.5243154" />
    <ellipse
       ry="2.5243154"
       rx="2.5938754"
       cy="298.72461"
       cx="20.776377"
       id="ellipse824"
       style="opacity:1;fill:#000000;fill-opacity:1;stroke:none;stroke-width:3;stroke-linecap:round;stroke-linejoin:round;stroke-miterlimit:4;stroke-dasharray:none;stroke-dashoffset:0;stroke-opacity:1" />
    <ellipse
       style="opacity:1;fill:#000000;fill-opacity:1;stroke:none;stroke-width:3;stroke-linecap:round;stroke-linejoin:round;stroke-miterlimit:4;stroke-dasharray:none;stroke-dashoffset:0;stroke-opacity:1"
       id="ellipse826"
       cx="28.735664"
       cy="301.56891"
       rx="2.5938754"
       ry="2.5243154" />
  </g>
</svg>
